R Basics
…
The easystats project’s correlation package, while not on CRAN, is the best at examining multiple correlations at once.

# devtools::install_github("easystats/correlation")
correlation::correlation(attitude)

## # A tibble: 21 x 10
##    Parameter1 Parameter2     r  CI_low CI_high     t    df        p Method n_Obs
##    <chr>      <chr>      <dbl>   <dbl>   <dbl> <dbl> <int>    <dbl> <chr>  <int>
##  1 rating     complaints 0.825  0.662    0.914 7.74     28  4.17e-7 Pears~    30
##  2 rating     privileges 0.426  0.0778   0.682 2.49     28  1.89e-1 Pears~    30
##  3 rating     learning   0.624  0.340    0.803 4.22     28  4.16e-3 Pears~    30
##  4 rating     raises     0.590  0.292    0.784 3.87     28  9.57e-3 Pears~    30
##  5 rating     critical   0.156 -0.216    0.489 0.838    28  1.00e+0 Pears~    30
##  6 rating     advance    0.155 -0.217    0.488 0.831    28  1.00e+0 Pears~    30
##  7 complaints privileges 0.558  0.248    0.765 3.56     28  1.88e-2 Pears~    30
##  8 complaints learning   0.597  0.301    0.788 3.94     28  8.50e-3 Pears~    30
##  9 complaints raises     0.669  0.407    0.829 4.77     28  1.05e-3 Pears~    30
## 10 complaints critical   0.188 -0.185    0.513 1.01     28  1.00e+0 Pears~    30
## # ... with 11 more rows
